{"coodinates":[
{ "latitude": "21.0318425", "longitude": "105.7887174" },
{ "latitude": "21.037647", "longitude": "105.774601" },
{ "latitude": "", "longitude": "" },
{ "latitude": "", "longitude": "" },
{ "latitude": "", "longitude": "" },
{ "latitude": "21.0406735", "longitude": "105.7861386" },
{ "latitude": "21.0406735", "longitude": "105.7861386" },
{ "latitude": "21.045970000000001","longitude": "105.80358099999999" },
{ "latitude": "", "longitude": "" },
{ "latitude": "21.028506799999999","longitude": "105.76884149999999" },
{ "latitude": "21.035905400000001", "longitude": "105.7848992" },
{ "latitude": "21.017271999999998", "longitude": "105.7799122" },
{ "latitude": "21.030634800000001","longitude": "105.78484229999999" },
{ "latitude": "21.022956000000001","longitude": "105.79078800000001" },
{ "latitude": "21.041184900000001","longitude": "105.79037219999999" },
{ "latitude": "21.041184900000001", "longitude": "105.79037219999999"},
{ "latitude": "21.028872199999999", "longitude": "105.7817464" },
{ "latitude": "21.008466599999998", "longitude": "105.8020233" },
{ "latitude": "21.008466599999998", "longitude": "105.8020233" },
{ "latitude": "21.008466599999998", "longitude": "105.8020233" }]
}